FPGA/quartus/ooo_cpu.vcd
$date
	Thu May 14 22:46:16 2026
$end
$version
	ModelSim Version 2020.1
$end
$timescale
	1ps
$end

$scope module tb_top $end
$var parameter 32 ! XLEN $end
$var reg 1 " clk $end
$var reg 1 # rst $end
$var reg 32 $ instruction [31:0] $end
$var reg 1 % valid $end
$var reg 64 & alu_result [63:0] $end
$var reg 1 ' commit_en $end

$scope module drv $end
$var wire 1 ( clk $end
$var wire 1 ) rst $end
$var reg 32 * instruction [31:0] $end
$var reg 1 + valid $end
$var reg 4 , instr_index [3:0] $end
$upscope $end

$scope module mon $end
$var wire 1 - clk $end
$var wire 1 . instruction [31] $end
$var wire 1 / instruction [30] $end
$var wire 1 0 instruction [29] $end
$var wire 1 1 instruction [28] $end
$var wire 1 2 instruction [27] $end
$var wire 1 3 instruction [26] $end
$var wire 1 4 instruction [25] $end
$var wire 1 5 instruction [24] $end
$var wire 1 6 instruction [23] $end
$var wire 1 7 instruction [22] $end
$var wire 1 8 instruction [21] $end
$var wire 1 9 instruction [20] $end
$var wire 1 : instruction [19] $end
$var wire 1 ; instruction [18] $end
$var wire 1 < instruction [17] $end
$var wire 1 = instruction [16] $end
$var wire 1 > instruction [15] $end
$var wire 1 ? instruction [14] $end
$var wire 1 @ instruction [13] $end
$var wire 1 A instruction [12] $end
$var wire 1 B instruction [11] $end
$var wire 1 C instruction [10] $end
$var wire 1 D instruction [9] $end
$var wire 1 E instruction [8] $end
$var wire 1 F instruction [7] $end
$var wire 1 G instruction [6] $end
$var wire 1 H instruction [5] $end
$var wire 1 I instruction [4] $end
$var wire 1 J instruction [3] $end
$var wire 1 K instruction [2] $end
$var wire 1 L instruction [1] $end
$var wire 1 M instruction [0] $end
$var wire 1 N valid $end
$var wire 1 O alu_result [63] $end
$var wire 1 P alu_result [62] $end
$var wire 1 Q alu_result [61] $end
$var wire 1 R alu_result [60] $end
$var wire 1 S alu_result [59] $end
$var wire 1 T alu_result [58] $end
$var wire 1 U alu_result [57] $end
$var wire 1 V alu_result [56] $end
$var wire 1 W alu_result [55] $end
$var wire 1 X alu_result [54] $end
$var wire 1 Y alu_result [53] $end
$var wire 1 Z alu_result [52] $end
$var wire 1 [ alu_result [51] $end
$var wire 1 \ alu_result [50] $end
$var wire 1 ] alu_result [49] $end
$var wire 1 ^ alu_result [48] $end
$var wire 1 _ alu_result [47] $end
$var wire 1 ` alu_result [46] $end
$var wire 1 a alu_result [45] $end
$var wire 1 b alu_result [44] $end
$var wire 1 c alu_result [43] $end
$var wire 1 d alu_result [42] $end
$var wire 1 e alu_result [41] $end
$var wire 1 f alu_result [40] $end
$var wire 1 g alu_result [39] $end
$var wire 1 h alu_result [38] $end
$var wire 1 i alu_result [37] $end
$var wire 1 j alu_result [36] $end
$var wire 1 k alu_result [35] $end
$var wire 1 l alu_result [34] $end
$var wire 1 m alu_result [33] $end
$var wire 1 n alu_result [32] $end
$var wire 1 o alu_result [31] $end
$var wire 1 p alu_result [30] $end
$var wire 1 q alu_result [29] $end
$var wire 1 r alu_result [28] $end
$var wire 1 s alu_result [27] $end
$var wire 1 t alu_result [26] $end
$var wire 1 u alu_result [25] $end
$var wire 1 v alu_result [24] $end
$var wire 1 w alu_result [23] $end
$var wire 1 x alu_result [22] $end
$var wire 1 y alu_result [21] $end
$var wire 1 z alu_result [20] $end
$var wire 1 { alu_result [19] $end
$var wire 1 | alu_result [18] $end
$var wire 1 } alu_result [17] $end
$var wire 1 ~ alu_result [16] $end
$var wire 1 !! alu_result [15] $end
$var wire 1 "! alu_result [14] $end
$var wire 1 #! alu_result [13] $end
$var wire 1 $! alu_result [12] $end
$var wire 1 %! alu_result [11] $end
$var wire 1 &! alu_result [10] $end
$var wire 1 '! alu_result [9] $end
$var wire 1 (! alu_result [8] $end
$var wire 1 )! alu_result [7] $end
$var wire 1 *! alu_result [6] $end
$var wire 1 +! alu_result [5] $end
$var wire 1 ,! alu_result [4] $end
$var wire 1 -! alu_result [3] $end
$var wire 1 .! alu_result [2] $end
$var wire 1 /! alu_result [1] $end
$var wire 1 0! alu_result [0] $end
$var wire 1 1! commit_en $end
$upscope $end

$scope module dut $end
$var wire 1 2! clk $end
$var wire 1 3! rst $end
$var reg 32 4! pc [31:0] $end
$var reg 32 5! instruction [31:0] $end
$var reg 1 6! fetch_valid $end
$var reg 1 7! decode_valid $end
$var reg 1 8! execute_valid $end
$var reg 1 9! commit_valid $end
$var reg 64 :! alu_result [63:0] $end
$var reg 6 ;! rob_head [5:0] $end
$var reg 6 <! rob_tail [5:0] $end
$var reg 32 =! if_id_instr [31:0] $end
$var reg 32 >! id_ex_instr [31:0] $end
$var reg 32 ?! ex_mem_instr [31:0] $end
$var reg 32 @! mem_wb_instr [31:0] $end
$var integer 32 A! i $end
$upscope $end
$upscope $end
$enddefinitions $end
#0
$dumpvars
0"
1#
bx $
x%
bx &
x'
bx *
x+
bx ,
bx 4!
bx 5!
x6!
x7!
x8!
x9!
bx :!
bx ;!
bx <!
bx =!
bx >!
bx ?!
bx @!
b1000000 !
bx A!
0(
1)
0-
xM
xL
xK
xJ
xI
xH
xG
xF
xE
xD
xC
xB
xA
x@
x?
x>
x=
x<
x;
x:
x9
x8
x7
x6
x5
x4
x3
x2
x1
x0
x/
x.
xN
x0!
x/!
x.!
x-!
x,!
x+!
x*!
x)!
x(!
x'!
x&!
x%!
x$!
x#!
x"!
x!!
x~
x}
x|
x{
xz
xy
xx
xw
xv
xu
xt
xs
xr
xq
xp
xo
xn
xm
xl
xk
xj
xi
xh
xg
xf
xe
xd
xc
xb
xa
x`
x_
x^
x]
x\
x[
xZ
xY
xX
xW
xV
xU
xT
xS
xR
xQ
xP
xO
x1!
02!
13!
$end
#5000
1"
12!
1-
1(
b0 A!
b1 A!
b10 A!
b11 A!
b100 A!
b101 A!
b110 A!
b111 A!
b1000 A!
b1001 A!
b1010 A!
b1011 A!
b1100 A!
b1101 A!
b1110 A!
b1111 A!
b10000 A!
b10001 A!
b10010 A!
b10011 A!
b10100 A!
b10101 A!
b10110 A!
b10111 A!
b11000 A!
b11001 A!
b11010 A!
b11011 A!
b11100 A!
b11101 A!
b11110 A!
b11111 A!
b100000 A!
b0 A!
b1 A!
b10 A!
b11 A!
b100 A!
b101 A!
b110 A!
b111 A!
b1000 A!
b1001 A!
b1010 A!
b1011 A!
b1100 A!
b1101 A!
b1110 A!
b1111 A!
b10000 A!
b10001 A!
b10010 A!
b10011 A!
b10100 A!
b10101 A!
b10110 A!
b10111 A!
b11000 A!
b11001 A!
b11010 A!
b11011 A!
b11100 A!
b11101 A!
b11110 A!
b11111 A!
b100000 A!
b0 A!
b1 A!
b10 A!
b11 A!
b100 A!
b101 A!
b110 A!
b111 A!
b1000 A!
b1001 A!
b1010 A!
b1011 A!
b1100 A!
b1101 A!
b1110 A!
b1111 A!
b10000 A!
b0 ,
b10011 *
0+
b0 4!
b10011 5!
b0 =!
b0 >!
b0 ?!
b0 @!
06!
07!
08!
09!
b0 ;!
b0 <!
0%
b10011 $
b100011 &
0'
0N
1M
1L
0K
0J
1I
0H
0G
0F
0E
0D
0C
0B
0A
0@
0?
0>
0=
0<
0;
0:
09
08
07
06
05
04
03
02
01
00
0/
0.
10!
1/!
0.!
0-!
0,!
1+!
0*!
0)!
0(!
0'!
0&!
0%!
0$!
0#!
0"!
0!!
0~
0}
0|
0{
0z
0y
0x
0w
0v
0u
0t
0s
0r
0q
0p
0o
0n
0m
0l
0k
0j
0i
0h
0g
0f
0e
0d
0c
0b
0a
0`
0_
0^
0]
0\
0[
0Z
0Y
0X
0W
0V
0U
0T
0S
0R
0Q
0P
0O
01!
b100011 :!
#10000
0"
02!
0-
0(
#15000
1"
12!
1-
1(
b0 A!
b1 A!
b10 A!
b11 A!
b100 A!
b101 A!
b110 A!
b111 A!
b1000 A!
b1001 A!
b1010 A!
b1011 A!
b1100 A!
b1101 A!
b1110 A!
b1111 A!
b10000 A!
b10001 A!
b10010 A!
b10011 A!
b10100 A!
b10101 A!
b10110 A!
b10111 A!
b11000 A!
b11001 A!
b11010 A!
b11011 A!
b11100 A!
b11101 A!
b11110 A!
b11111 A!
b100000 A!
b0 A!
b1 A!
b10 A!
b11 A!
b100 A!
b101 A!
b110 A!
b111 A!
b1000 A!
b1001 A!
b1010 A!
b1011 A!
b1100 A!
b1101 A!
b1110 A!
b1111 A!
b10000 A!
b10001 A!
b10010 A!
b10011 A!
b10100 A!
b10101 A!
b10110 A!
b10111 A!
b11000 A!
b11001 A!
b11010 A!
b11011 A!
b11100 A!
b11101 A!
b11110 A!
b11111 A!
b100000 A!
b0 A!
b1 A!
b10 A!
b11 A!
b100 A!
b101 A!
b110 A!
b111 A!
b1000 A!
b1001 A!
b1010 A!
b1011 A!
b1100 A!
b1101 A!
b1110 A!
b1111 A!
b10000 A!
#20000
0#
0"
03!
0)
02!
0-
0(
#25000
1"
12!
1-
1(
b0 A!
b1 A!
b10 A!
b11 A!
b100 A!
b101 A!
b110 A!
b111 A!
b1000 A!
b1001 A!
b1010 A!
b1011 A!
b1100 A!
b1101 A!
b1110 A!
b1111 A!
b10000 A!
b10001 A!
b10010 A!
b10011 A!
b10100 A!
b10101 A!
b10110 A!
b10111 A!
b11000 A!
b11001 A!
b11010 A!
b11011 A!
b11100 A!
b11101 A!
b11110 A!
b11111 A!
b100000 A!
b0 A!
b1 A!
b10 A!
b11 A!
b100 A!
b101 A!
b110 A!
b111 A!
b1000 A!
b1001 A!
b1010 A!
b1011 A!
b1100 A!
b1101 A!
b1110 A!
b1111 A!
b10000 A!
b10001 A!
b10010 A!
b10011 A!
b10100 A!
b10101 A!
b10110 A!
b10111 A!
b11000 A!
b11001 A!
b11010 A!
b11011 A!
b11100 A!
b11101 A!
b11110 A!
b11111 A!
b100000 A!
b0 A!
b1 A!
b10 A!
b11 A!
b100 A!
b101 A!
b110 A!
b111 A!
b1000 A!
b1001 A!
b1010 A!
b1011 A!
b1100 A!
b1101 A!
b1110 A!
b1111 A!
b10000 A!
b10100000000000010010011 *
1+
b1 ,
b100 4!
b10100 5!
b10011 =!
16!
b1 ;!
b1 <!
1%
b10100000000000010010011 $
b10100000000000010100011 &
1'
1N
1F
19
17
1)!
1z
1x
11!
b100100 :!
#30000
0"
02!
0-
0(
#35000
1"
12!
1-
1(
b0 A!
b1 A!
b10 A!
b11 A!
b100 A!
b101 A!
b110 A!
b111 A!
b1000 A!
b1001 A!
b1010 A!
b1011 A!
b1100 A!
b1101 A!
b1110 A!
b1111 A!
b10000 A!
b10001 A!
b10010 A!
b10011 A!
b10100 A!
b10101 A!
b10110 A!
b10111 A!
b11000 A!
b11001 A!
b11010 A!
b11011 A!
b11100 A!
b11101 A!
b11110 A!
b11111 A!
b100000 A!
b0 A!
b1 A!
b10 A!
b11 A!
b100 A!
b101 A!
b110 A!
b111 A!
b1000 A!
b1001 A!
b1010 A!
b1011 A!
b1100 A!
b1101 A!
b1110 A!
b1111 A!
b10000 A!
b10001 A!
b10010 A!
b10011 A!
b10100 A!
b10101 A!
b10110 A!
b10111 A!
b11000 A!
b11001 A!
b11010 A!
b11011 A!
b11100 A!
b11101 A!
b11110 A!
b11111 A!
b100000 A!
b0 A!
b1 A!
b10 A!
b11 A!
b100 A!
b101 A!
b110 A!
b111 A!
b1000 A!
b1001 A!
b1010 A!
b1011 A!
b1100 A!
b1101 A!
b1110 A!
b1111 A!
b10000 A!
b101000000000000100010011 *
b10 ,
b1000 4!
b10101 5!
b10100 =!
b10011 >!
17!
b10 ;!
b10 <!
b101000000000000100010011 $
b101000000000000100100011 &
0F
1E
09
18
07
16
0)!
1(!
0z
1y
0x
1w
b100101 :!
#40000
0"
02!
0-
0(
#45000
1"
12!
1-
1(
b0 A!
b1 A!
b10 A!
b11 A!
b100 A!
b101 A!
b110 A!
b111 A!
b1000 A!
b1001 A!
b1010 A!
b1011 A!
b1100 A!
b1101 A!
b1110 A!
b1111 A!
b10000 A!
b10001 A!
b10010 A!
b10011 A!
b10100 A!
b10101 A!
b10110 A!
b10111 A!
b11000 A!
b11001 A!
b11010 A!
b11011 A!
b11100 A!
b11101 A!
b11110 A!
b11111 A!
b100000 A!
b0 A!
b1 A!
b10 A!
b11 A!
b100 A!
b101 A!
b110 A!
b111 A!
b1000 A!
b1001 A!
b1010 A!
b1011 A!
b1100 A!
b1101 A!
b1110 A!
b1111 A!
b10000 A!
b10001 A!
b10010 A!
b10011 A!
b10100 A!
b10101 A!
b10110 A!
b10111 A!
b11000 A!
b11001 A!
b11010 A!
b11011 A!
b11100 A!
b11101 A!
b11110 A!
b11111 A!
b100000 A!
b0 A!
b1 A!
b10 A!
b11 A!
b100 A!
b101 A!
b110 A!
b111 A!
b1000 A!
b1001 A!
b1010 A!
b1011 A!
b1100 A!
b1101 A!
b1110 A!
b1111 A!
b10000 A!
b1000001000000110110011 *
b11 ,
b1100 4!
b10110 5!
b10101 =!
b10100 >!
b10011 ?!
18!
b11 ;!
b11 <!
b1000001000000110110011 $
b1000001000000111000011 &
1H
1F
1>
06
0+!
1*!
1)!
1!!
0w
b100110 :!
#50000
0"
02!
0-
0(
#55000
1"
12!
1-
1(
b0 A!
b1 A!
b10 A!
b11 A!
b100 A!
b101 A!
b110 A!
b111 A!
b1000 A!
b1001 A!
b1010 A!
b1011 A!
b1100 A!
b1101 A!
b1110 A!
b1111 A!
b10000 A!
b10001 A!
b10010 A!
b10011 A!
b10100 A!
b10101 A!
b10110 A!
b10111 A!
b11000 A!
b11001 A!
b11010 A!
b11011 A!
b11100 A!
b11101 A!
b11110 A!
b11111 A!
b100000 A!
b0 A!
b1 A!
b10 A!
b11 A!
b100 A!
b101 A!
b110 A!
b111 A!
b1000 A!
b1001 A!
b1010 A!
b1011 A!
b1100 A!
b1101 A!
b1110 A!
b1111 A!
b10000 A!
b10001 A!
b10010 A!
b10011 A!
b10100 A!
b10101 A!
b10110 A!
b10111 A!
b11000 A!
b11001 A!
b11010 A!
b11011 A!
b11100 A!
b11101 A!
b11110 A!
b11111 A!
b100000 A!
b0 A!
b1 A!
b10 A!
b11 A!
b100 A!
b101 A!
b110 A!
b111 A!
b1000 A!
b1001 A!
b1010 A!
b1011 A!
b1100 A!
b1101 A!
b1110 A!
b1111 A!
b10000 A!
b1000000001000011000001000110011 *
b100 ,
b10000 4!
b10111 5!
b10110 =!
b10101 >!
b10100 ?!
b10011 @!
19!
b100 ;!
b100 <!
b1000000001000011000001000110011 $
b1000000001000011000001001000011 &
0F
0E
1D
1=
1/
0)!
0(!
1'!
1~
1p
b100111 :!
#60000
0"
02!
0-
0(
#65000
1"
12!
1-
1(
b0 A!
b1 A!
b10 A!
b11 A!
b100 A!
b101 A!
b110 A!
b111 A!
b1000 A!
b1001 A!
b1010 A!
b1011 A!
b1100 A!
b1101 A!
b1110 A!
b1111 A!
b10000 A!
b10001 A!
b10010 A!
b10011 A!
b10100 A!
b10101 A!
b10110 A!
b10111 A!
b11000 A!
b11001 A!
b11010 A!
b11011 A!
b11100 A!
b11101 A!
b11110 A!
b11111 A!
b100000 A!
b0 A!
b1 A!
b10 A!
b11 A!
b100 A!
b101 A!
b110 A!
b111 A!
b1000 A!
b1001 A!
b1010 A!
b1011 A!
b1100 A!
b1101 A!
b1110 A!
b1111 A!
b10000 A!
b10001 A!
b10010 A!
b10011 A!
b10100 A!
b10101 A!
b10110 A!
b10111 A!
b11000 A!
b11001 A!
b11010 A!
b11011 A!
b11100 A!
b11101 A!
b11110 A!
b11111 A!
b100000 A!
b0 A!
b1 A!
b10 A!
b11 A!
b100 A!
b101 A!
b110 A!
b111 A!
b1000 A!
b1001 A!
b1010 A!
b1011 A!
b1100 A!
b1101 A!
b1110 A!
b1111 A!
b10000 A!
b1100000010000000100011 *
b101 ,
b10100 4!
b11000 5!
b10111 =!
b10110 >!
b10101 ?!
b10100 @!
b101 ;!
b101 <!
b1100000010000000100011 $
b1100000010000000110011 &
0I
0D
1@
0>
0=
19
0/
1,!
1+!
0*!
0'!
1#!
0!!
0~
1z
0p
b101000 :!
#70000
0"
02!
0-
0(
#75000
1"
12!
1-
1(
b0 A!
b1 A!
b10 A!
b11 A!
b100 A!
b101 A!
b110 A!
b111 A!
b1000 A!
b1001 A!
b1010 A!
b1011 A!
b1100 A!
b1101 A!
b1110 A!
b1111 A!
b10000 A!
b10001 A!
b10010 A!
b10011 A!
b10100 A!
b10101 A!
b10110 A!
b10111 A!
b11000 A!
b11001 A!
b11010 A!
b11011 A!
b11100 A!
b11101 A!
b11110 A!
b11111 A!
b100000 A!
b0 A!
b1 A!
b10 A!
b11 A!
b100 A!
b101 A!
b110 A!
b111 A!
b1000 A!
b1001 A!
b1010 A!
b1011 A!
b1100 A!
b1101 A!
b1110 A!
b1111 A!
b10000 A!
b10001 A!
b10010 A!
b10011 A!
b10100 A!
b10101 A!
b10110 A!
b10111 A!
b11000 A!
b11001 A!
b11010 A!
b11011 A!
b11100 A!
b11101 A!
b11110 A!
b11111 A!
b100000 A!
b0 A!
b1 A!
b10 A!
b11 A!
b100 A!
b101 A!
b110 A!
b111 A!
b1000 A!
b1001 A!
b1010 A!
b1011 A!
b1100 A!
b1101 A!
b1110 A!
b1111 A!
b10000 A!
b10001010000011 *
b110 ,
b11000 4!
b11001 5!
b11000 =!
b10111 >!
b10110 ?!
b10101 @!
b110 ;!
b110 <!
b10001010000011 $
b10001010010011 &
0H
1F
1D
09
08
0+!
1)!
1'!
0z
0y
b101001 :!
#80000
0"
02!
0-
0(
#85000
1"
12!
1-
1(
b0 A!
b1 A!
b10 A!
b11 A!
b100 A!
b101 A!
b110 A!
b111 A!
b1000 A!
b1001 A!
b1010 A!
b1011 A!
b1100 A!
b1101 A!
b1110 A!
b1111 A!
b10000 A!
b10001 A!
b10010 A!
b10011 A!
b10100 A!
b10101 A!
b10110 A!
b10111 A!
b11000 A!
b11001 A!
b11010 A!
b11011 A!
b11100 A!
b11101 A!
b11110 A!
b11111 A!
b100000 A!
b0 A!
b1 A!
b10 A!
b11 A!
b100 A!
b101 A!
b110 A!
b111 A!
b1000 A!
b1001 A!
b1010 A!
b1011 A!
b1100 A!
b1101 A!
b1110 A!
b1111 A!
b10000 A!
b10001 A!
b10010 A!
b10011 A!
b10100 A!
b10101 A!
b10110 A!
b10111 A!
b11000 A!
b11001 A!
b11010 A!
b11011 A!
b11100 A!
b11101 A!
b11110 A!
b11111 A!
b100000 A!
b0 A!
b1 A!
b10 A!
b11 A!
b100 A!
b101 A!
b110 A!
b111 A!
b1000 A!
b1001 A!
b1010 A!
b1011 A!
b1100 A!
b1101 A!
b1110 A!
b1111 A!
b10000 A!
b1000001000010001100011 *
b111 ,
b11100 4!
b11010 5!
b11001 =!
b11000 >!
b10111 ?!
b10110 @!
b111 ;!
b111 <!
b1000001000010001100011 $
b1000001000010001110011 &
1H
1G
0F
0D
1C
0@
1>
18
1+!
1*!
0)!
0'!
1&!
0#!
1!!
1y
b101010 :!
#90000
0"
02!
0-
0(
#95000
1"
12!
1-
1(
b0 A!
b1 A!
b10 A!
b11 A!
b100 A!
b101 A!
b110 A!
b111 A!
b1000 A!
b1001 A!
b1010 A!
b1011 A!
b1100 A!
b1101 A!
b1110 A!
b1111 A!
b10000 A!
b10001 A!
b10010 A!
b10011 A!
b10100 A!
b10101 A!
b10110 A!
b10111 A!
b11000 A!
b11001 A!
b11010 A!
b11011 A!
b11100 A!
b11101 A!
b11110 A!
b11111 A!
b100000 A!
b0 A!
b1 A!
b10 A!
b11 A!
b100 A!
b101 A!
b110 A!
b111 A!
b1000 A!
b1001 A!
b1010 A!
b1011 A!
b1100 A!
b1101 A!
b1110 A!
b1111 A!
b10000 A!
b10001 A!
b10010 A!
b10011 A!
b10100 A!
b10101 A!
b10110 A!
b10111 A!
b11000 A!
b11001 A!
b11010 A!
b11011 A!
b11100 A!
b11101 A!
b11110 A!
b11111 A!
b100000 A!
b0 A!
b1 A!
b10 A!
b11 A!
b100 A!
b101 A!
b110 A!
b111 A!
b1000 A!
b1001 A!
b1010 A!
b1011 A!
b1100 A!
b1101 A!
b1110 A!
b1111 A!
b10000 A!
b100101100001100110011 *
b1000 ,
b100000 4!
b11011 5!
b11010 =!
b11001 >!
b11000 ?!
b10111 @!
b1000 ;!
b1000 <!
b100101100001100110011 $
b100101100001101000011 &
1I
0G
1E
1D
0C
1?
1<
19
08
0,!
0+!
1(!
1'!
0&!
1"!
1}
1z
0y
b101011 :!
#100000
0"
02!
0-
0(
#105000
1"
12!
1-
1(
b0 A!
b1 A!
b10 A!
b11 A!
b100 A!
b101 A!
b110 A!
b111 A!
b1000 A!
b1001 A!
b1010 A!
b1011 A!
b1100 A!
b1101 A!
b1110 A!
b1111 A!
b10000 A!
b10001 A!
b10010 A!
b10011 A!
b10100 A!
b10101 A!
b10110 A!
b10111 A!
b11000 A!
b11001 A!
b11010 A!
b11011 A!
b11100 A!
b11101 A!
b11110 A!
b11111 A!
b100000 A!
b0 A!
b1 A!
b10 A!
b11 A!
b100 A!
b101 A!
b110 A!
b111 A!
b1000 A!
b1001 A!
b1010 A!
b1011 A!
b1100 A!
b1101 A!
b1110 A!
b1111 A!
b10000 A!
b10001 A!
b10010 A!
b10011 A!
b10100 A!
b10101 A!
b10110 A!
b10111 A!
b11000 A!
b11001 A!
b11010 A!
b11011 A!
b11100 A!
b11101 A!
b11110 A!
b11111 A!
b100000 A!
b0 A!
b1 A!
b10 A!
b11 A!
b100 A!
b101 A!
b110 A!
b111 A!
b1000 A!
b1001 A!
b1010 A!
b1011 A!
b1100 A!
b1101 A!
b1110 A!
b1111 A!
b10000 A!
b10011 *
b1001 ,
b100100 4!
b11100 5!
b11011 =!
b11010 >!
b11001 ?!
b11000 @!
b1001 ;!
b1001 <!
b10011 $
b100011 &
0H
0E
0D
0?
0>
0<
09
1+!
0*!
0(!
0'!
0"!
0!!
0}
0z
b101100 :!
#110000
0"
02!
0-
0(
#115000
1"
12!
1-
1(
b0 A!
b1 A!
b10 A!
b11 A!
b100 A!
b101 A!
b110 A!
b111 A!
b1000 A!
b1001 A!
b1010 A!
b1011 A!
b1100 A!
b1101 A!
b1110 A!
b1111 A!
b10000 A!
b10001 A!
b10010 A!
b10011 A!
b10100 A!
b10101 A!
b10110 A!
b10111 A!
b11000 A!
b11001 A!
b11010 A!
b11011 A!
b11100 A!
b11101 A!
b11110 A!
b11111 A!
b100000 A!
b0 A!
b1 A!
b10 A!
b11 A!
b100 A!
b101 A!
b110 A!
b111 A!
b1000 A!
b1001 A!
b1010 A!
b1011 A!
b1100 A!
b1101 A!
b1110 A!
b1111 A!
b10000 A!
b10001 A!
b10010 A!
b10011 A!
b10100 A!
b10101 A!
b10110 A!
b10111 A!
b11000 A!
b11001 A!
b11010 A!
b11011 A!
b11100 A!
b11101 A!
b11110 A!
b11111 A!
b100000 A!
b0 A!
b1 A!
b10 A!
b11 A!
b100 A!
b101 A!
b110 A!
b111 A!
b1000 A!
b1001 A!
b1010 A!
b1011 A!
b1100 A!
b1101 A!
b1110 A!
b1111 A!
b10000 A!
b1010 ,
b101000 4!
b11101 5!
b11100 =!
b11011 >!
b11010 ?!
b11001 @!
b1010 ;!
b1010 <!
b101101 :!
#120000
0"
02!
0-
0(
#125000
1"
12!
1-
1(
b0 A!
b1 A!
b10 A!
b11 A!
b100 A!
b101 A!
b110 A!
b111 A!
b1000 A!
b1001 A!
b1010 A!
b1011 A!
b1100 A!
b1101 A!
b1110 A!
b1111 A!
b10000 A!
b10001 A!
b10010 A!
b10011 A!
b10100 A!
b10101 A!
b10110 A!
b10111 A!
b11000 A!
b11001 A!
b11010 A!
b11011 A!
b11100 A!
b11101 A!
b11110 A!
b11111 A!
b100000 A!
b0 A!
b1 A!
b10 A!
b11 A!
b100 A!
b101 A!
b110 A!
b111 A!
b1000 A!
b1001 A!
b1010 A!
b1011 A!
b1100 A!
b1101 A!
b1110 A!
b1111 A!
b10000 A!
b10001 A!
b10010 A!
b10011 A!
b10100 A!
b10101 A!
b10110 A!
b10111 A!
b11000 A!
b11001 A!
b11010 A!
b11011 A!
b11100 A!
b11101 A!
b11110 A!
b11111 A!
b100000 A!
b0 A!
b1 A!
b10 A!
b11 A!
b100 A!
b101 A!
b110 A!
b111 A!
b1000 A!
b1001 A!
b1010 A!
b1011 A!
b1100 A!
b1101 A!
b1110 A!
b1111 A!
b10000 A!
b1011 ,
b101100 4!
b11110 5!
b11101 =!
b11100 >!
b11011 ?!
b11010 @!
b1011 ;!
b1011 <!
b101110 :!
#130000
0"
02!
0-
0(
#135000
1"
12!
1-
1(
b0 A!
b1 A!
b10 A!
b11 A!
b100 A!
b101 A!
b110 A!
b111 A!
b1000 A!
b1001 A!
b1010 A!
b1011 A!
b1100 A!
b1101 A!
b1110 A!
b1111 A!
b10000 A!
b10001 A!
b10010 A!
b10011 A!
b10100 A!
b10101 A!
b10110 A!
b10111 A!
b11000 A!
b11001 A!
b11010 A!
b11011 A!
b11100 A!
b11101 A!
b11110 A!
b11111 A!
b100000 A!
b0 A!
b1 A!
b10 A!
b11 A!
b100 A!
b101 A!
b110 A!
b111 A!
b1000 A!
b1001 A!
b1010 A!
b1011 A!
b1100 A!
b1101 A!
b1110 A!
b1111 A!
b10000 A!
b10001 A!
b10010 A!
b10011 A!
b10100 A!
b10101 A!
b10110 A!
b10111 A!
b11000 A!
b11001 A!
b11010 A!
b11011 A!
b11100 A!
b11101 A!
b11110 A!
b11111 A!
b100000 A!
b0 A!
b1 A!
b10 A!
b11 A!
b100 A!
b101 A!
b110 A!
b111 A!
b1000 A!
b1001 A!
b1010 A!
b1011 A!
b1100 A!
b1101 A!
b1110 A!
b1111 A!
b10000 A!
b1100 ,
b110000 4!
b11111 5!
b11110 =!
b11101 >!
b11100 ?!
b11011 @!
b1100 ;!
b1100 <!
b101111 :!
#140000
0"
02!
0-
0(
#145000
1"
12!
1-
1(
b0 A!
b1 A!
b10 A!
b11 A!
b100 A!
b101 A!
b110 A!
b111 A!
b1000 A!
b1001 A!
b1010 A!
b1011 A!
b1100 A!
b1101 A!
b1110 A!
b1111 A!
b10000 A!
b10001 A!
b10010 A!
b10011 A!
b10100 A!
b10101 A!
b10110 A!
b10111 A!
b11000 A!
b11001 A!
b11010 A!
b11011 A!
b11100 A!
b11101 A!
b11110 A!
b11111 A!
b100000 A!
b0 A!
b1 A!
b10 A!
b11 A!
b100 A!
b101 A!
b110 A!
b111 A!
b1000 A!
b1001 A!
b1010 A!
b1011 A!
b1100 A!
b1101 A!
b1110 A!
b1111 A!
b10000 A!
b10001 A!
b10010 A!
b10011 A!
b10100 A!
b10101 A!
b10110 A!
b10111 A!
b11000 A!
b11001 A!
b11010 A!
b11011 A!
b11100 A!
b11101 A!
b11110 A!
b11111 A!
b100000 A!
b0 A!
b1 A!
b10 A!
b11 A!
b100 A!
b101 A!
b110 A!
b111 A!
b1000 A!
b1001 A!
b1010 A!
b1011 A!
b1100 A!
b1101 A!
b1110 A!
b1111 A!
b10000 A!
b1101 ,
b110100 4!
b100000 5!
b11111 =!
b11110 >!
b11101 ?!
b11100 @!
b1101 ;!
b1101 <!
b110000 :!
#150000
0"
02!
0-
0(
#155000
1"
12!
1-
1(
b0 A!
b1 A!
b10 A!
b11 A!
b100 A!
b101 A!
b110 A!
b111 A!
b1000 A!
b1001 A!
b1010 A!
b1011 A!
b1100 A!
b1101 A!
b1110 A!
b1111 A!
b10000 A!
b10001 A!
b10010 A!
b10011 A!
b10100 A!
b10101 A!
b10110 A!
b10111 A!
b11000 A!
b11001 A!
b11010 A!
b11011 A!
b11100 A!
b11101 A!
b11110 A!
b11111 A!
b100000 A!
b0 A!
b1 A!
b10 A!
b11 A!
b100 A!
b101 A!
b110 A!
b111 A!
b1000 A!
b1001 A!
b1010 A!
b1011 A!
b1100 A!
b1101 A!
b1110 A!
b1111 A!
b10000 A!
b10001 A!
b10010 A!
b10011 A!
b10100 A!
b10101 A!
b10110 A!
b10111 A!
b11000 A!
b11001 A!
b11010 A!
b11011 A!
b11100 A!
b11101 A!
b11110 A!
b11111 A!
b100000 A!
b0 A!
b1 A!
b10 A!
b11 A!
b100 A!
b101 A!
b110 A!
b111 A!
b1000 A!
b1001 A!
b1010 A!
b1011 A!
b1100 A!
b1101 A!
b1110 A!
b1111 A!
b10000 A!
b1110 ,
b111000 4!
b100001 5!
b100000 =!
b11111 >!
b11110 ?!
b11101 @!
b1110 ;!
b1110 <!
b110001 :!
#160000
0"
02!
0-
0(
